{
  "name": "John Doe",
  "age": 30,
  "email": "johndoe@example.com",
  "address": {
    "street": "123 Main Street",
    "city": "New York",
    "state": "NY",
    "postalCode": "10001"
  },
  "phoneNumbers": [
    "+1 555-1234",
    "+1 555-5678"
  ]
}